Chapter 9 Data Preparation | Data Science for Sensory and Consumer Scientists
…
file_path <- here("data","biscuits_sensory_profile_with_NA.xlsx")
sensory <- read_xlsx(file_path, sheet="Data")

9.2 Inspect

9.2.1 Data Inspection

To inspect the data, different steps can be used.
First, since read_xlsx() returns a tibble, let’s take advantage of its printing properties to get a fill of the data:

sensory

## # A tibble: 99 × 34
##    Judge Product Shiny Extern…¹ Color…² Qty o…³ Surfa…⁴
##    <chr> <chr>   <dbl>    <dbl>   <dbl>   <dbl>   <dbl>
##  1 J01   P01      52.8     30      22.8     9.6    22.8
##  2 J01   P02      48.6     30      13.2    10.8    13.2
##  3 J01   P03      48       45.6    17.4     7.8    14.4
##  4 J01   P04      46.2     45.6    37.8     0      48.6
##  5 J01   P05       0       23.4    49.2     0      12.6
##  6 J01   P06       0       50.4    24      27.6    39.6
##  7 J01   P07       5.4      6.6    17.4     0      36  
##  8 J01   P08       0       51.6    48.6    23.4    18  
##  9 J01   P09       0       42.6    18      21      36  
## 10 J01   P10      53.4     36.6    11.4    18      10.8
## # … with 89 more rows, 27 more variables:
## #   `Print quality` <dbl>, Thickness <dbl>,
## #   `Color contrast` <dbl>,
## #   `Overall odor intensity` <dbl>,
## #   `Fatty odor` <dbl>, `Roasted odor` <dbl>,
## #   `Cereal flavor` <dbl>, `RawDough flavor` <dbl>,
## #   `Fatty flavor` <dbl>, `Dairy flavor` <dbl>, …
…
As can be seen, since P04 contains the missing value, its corresponding mean is defined as NA.

9.2.2.3 Removing Missing Values

To enforce the mean to be computed, we need to inform R to remove any missing values beforehand. Such procedure can be done manually by simply filtering out any missing data (here for Sour) before running the analysis:

sensory %>% 
  filter(!is.na(Sour))

## # A tibble: 89 × 34
##    Judge Product Shiny Extern…¹ Color…² Qty o…³ Surfa…⁴
##    <chr> <chr>   <dbl>    <dbl>   <dbl>   <dbl>   <dbl>
##  1 J01   P01      52.8     30      22.8     9.6    22.8
##  2 J01   P02      48.6     30      13.2    10.8    13.2
##  3 J01   P03      48       45.6    17.4     7.8    14.4
##  4 J01   P04      46.2     45.6    37.8     0      48.6
##  5 J01   P05       0       23.4    49.2     0      12.6
##  6 J01   P06       0       50.4    24      27.6    39.6
##  7 J01   P07       5.4      6.6    17.4     0      36  
##  8 J01   P08       0       51.6    48.6    23.4    18  
##  9 J01   P09       0       42.6    18      21      36  
## 10 J01   P10      53.4     36.6    11.4    18      10.8
## # … with 79 more rows, 27 more variables:
## #   `Print quality` <dbl>, Thickness <dbl>,
## #   `Color contrast` <dbl>,
## #   `Overall odor intensity` <dbl>,
## #   `Fatty odor` <dbl>, `Roasted odor` <dbl>,
## #   `Cereal flavor` <dbl>, `RawDough flavor` <dbl>,
## #   `Fatty flavor` <dbl>, `Dairy flavor` <dbl>, …
…
This procedure removed the 7 attributes that contained missing values, leading to a table with 99 rows and 29 columns (instead of 36).

9.2.2.4 Imputing Missing Values

Rather than removing missing data, another strategy consists in imputing missing values. Here again, many strategies can be considered, starting with replacing them with a fixed value. Such approach is usually not the most suitable one, yet it can be relevant in certain cases. For instance, in a CATA task, missing values are often replaced with 0s (not ticked).

To replace missing values with a fixed value, replace_na() can be used. When applied to a tibble, this function requires you defining using list() the columns to apply it to, and which values to use (each column being treated separately).

For convenience, let’s apply it to sensory by replacing missing values for Sour by the value 888 and for Light with 999 (we use these extreme values to track changes more easily):

sensory %>% 
  replace_na(list(Sour = 888, Light = 999)) %>% 
  dplyr::select(Judge, Product, Sour, Light)

## # A tibble: 99 × 4
##    Judge Product  Sour Light
##    <chr> <chr>   <dbl> <dbl>
##  1 J01   P01         0  22.8
##  2 J01   P02         0  21  
##  3 J01   P03         0  20.4
##  4 J01   P04         0 999  
##  5 J01   P05         0  44.4
##  6 J01   P06         0  24  
##  7 J01   P07         0  25.8
##  8 J01   P08         0  39  
##  9 J01   P09         0  21  
## 10 J01   P10         0  33  
## # … with 89 more rows
…
## `summarise()` has grouped output by 'Product'. You can
## override using the `.groups` argument.

sensory_long %>% 
  full_join(prod_mean, by=c("Product","Variables")) %>% 
  mutate(Scores = ifelse(is.na(Scores), Mean, Scores)) %>% 
  dplyr::select(-"Mean") %>% 
  pivot_wider(names_from=Variables, values_from=Scores) %>% 
  dplyr::select(Judge, Product, Sour, Light)

## # A tibble: 99 × 4
##    Judge Product  Sour Light
##    <chr> <chr>   <dbl> <dbl>
##  1 J01   P01         0  22.8
##  2 J01   P02         0  21  
##  3 J01   P03         0  20.4
##  4 J01   P04         0  40.7
##  5 J01   P05         0  44.4
##  6 J01   P06         0  24  
##  7 J01   P07         0  25.8
##  8 J01   P08         0  39  
##  9 J01   P09         0  21  
## 10 J01   P10         0  33  
## # … with 89 more rows

As can be seen, the missing value associated to J01 for Light and P04 has been replaced by 40.7. In fact, any missing values related to P04 and Light would automatically be replaced by 40.7 here. For other products (and other attributes), their respective means would be used.

When the model used to impute missing values is fairly simple (here, replacing by the mean correspond to a simple 1-way ANOVA), the imputation can be done directly through the impute_lm() function from the {simputation} package. To mimic the previous approach, the one-way ANOVA is being used43. Here, missing data for both Sour and Light are being imputed independently using the same model:

library(simputation)

sensory %>% 
  impute_lm(Sour + Light ~ Product) %>% 
  dplyr::select(Judge, Product, Sour, Light)

## # A tibble: 99 × 4
##    Judge Product  Sour Light
##    <chr> <chr>   <dbl> <dbl>
##  1 J01   P01         0  22.8
##  2 J01   P02         0  21  
##  3 J01   P03         0  20.4
##  4 J01   P04         0  40.7
##  5 J01   P05         0  44.4
##  6 J01   P06         0  24  
##  7 J01   P07         0  25.8
##  8 J01   P08         0  39  
##  9 J01   P09         0  21  
## 10 J01   P10         0  33  
## # … with 89 more rows

As can be seen, this procedure provides the same results as before, but in less steps!

In some situations, implementing missing values using such ANOVA (or regression) model can lead to aberrations. It is for instance the case when the imputed values falls outside the scale boundaries. To avoid such situations, {simputation} also provides other more advanced alternatives including (amongst others) impute_rf() which uses random forest to impute the missing values.

Last but not least, imputation of missing values could also be done in a multivariate way, by using the structure of the data (e.g. correlation) to predict the missing values. This is the approach proposed in the {missMDA} package. Since our data are numeric, the imputation is done through PCA with the imputePCA() function. Note that here, the imputed values are stored in the object .$completeObs (here, sensory is used):

library(missMDA)

imputePCA(sensory, quali.sup=1:4, method="EM")$completeObs %>% 
  dplyr::select(Judge, Product, Sour, Light)

## # A tibble: 99 × 4
##    Judge Product  Sour Light
##    <chr> <chr>   <dbl> <dbl>
##  1 J01   P01         0  22.8
##  2 J01   P02         0  21  
##  3 J01   P03         0  20.4
##  4 J01   P04         0  33.7
##  5 J01   P05         0  44.4
##  6 J01   P06         0  24  
##  7 J01   P07         0  25.8
##  8 J01   P08         0  39  
##  9 J01   P09         0  21  
## 10 J01   P10         0  33  
## # … with 89 more rows
…
example_reduced %>% 
  count(Judge_fct, .drop=FALSE)

## # A tibble: 107 × 2
##    Judge_fct     n
##    <fct>     <int>
##  1 J1            1
##  2 J2            1
##  3 J3            1
##  4 J4            1
##  5 J5            1
##  6 J6            1
##  7 J7            1
##  8 J8            1
##  9 J9            1
## 10 J10           1
## # … with 97 more rows
…
