Chapter 10 Data Analysis | Data Science for Sensory and Consumer Scientists
…
Once the analysis is done, we summarize the info stored in mod by converting it into a tibble using {broom}:

senso_aov2 <- senso_aov_data %>%
  nest_by(Attribute) %>%
  mutate(mod = list(lm(Score ~ Product + Judge, data = data))) %>%
  summarise(broom::tidy(anova(mod))) %>%
  ungroup()

## `summarise()` has grouped output by 'Attribute'. You
## can override using the `.groups` argument.

The two approaches return the exact same results:

## # A tibble: 96 × 7
##    Attribute term     df sumsq meansq stati…¹   p.value
##    <chr>     <chr> <int> <dbl>  <dbl>   <dbl>     <dbl>
##  1 Astringe… Prod…    10  870.   87.0    1.62  1.16e- 1
##  2 Astringe… Judge     8 5041.  630.    11.7   6.94e-11
##  3 Astringe… Resi…    80 4302.   53.8   NA    NA       
##  4 Bitter    Prod…    10 1005.  101.     3.95  2.11e- 4
##  5 Bitter    Judge     8 2863.  358.    14.1   1.42e-12
##  6 Bitter    Resi…    80 2034.   25.4   NA    NA       
##  7 Brittle   Prod…    10 6246.  625.    11.0   1.42e-11
##  8 Brittle   Judge     8 4243.  530.     9.38  4.86e- 9
##  9 Brittle   Resi…    80 4525.   56.6   NA    NA       
## 10 Cereal f… Prod…    10  795.   79.5    1.22  2.94e- 1
## # … with 86 more rows, and abbreviated variable name
## #   ¹​statistic
…
