Chapter 8 Data Collection | Data Science for Sensory and Consumer Scientists
…
From the second row onward, only data is being stored.

Since this data will be used for some analyses, it is assigned data to an R object called sensory.

library(here)
file_path <- here("data","biscuits_sensory_profile.xlsx") 

library(readxl)
sensory <- readxl::read_xlsx(file_path, sheet="Data")

To ensure that the importation went well, it is advised to print sensory after importation. Since {readxl} has been developed by Hadley Wickham and colleagues, its functions follow the {tidyverse} principles and the data thus imported is stored in a tibble. Let’s take advantage of the printing properties of a tibble to evaluate sensory:

sensory

## # A tibble: 99 × 34
##    Judge Product Shiny Extern…¹ Color…² Qty o…³ Surfa…⁴
##    <chr> <chr>   <dbl>    <dbl>   <dbl>   <dbl>   <dbl>
##  1 J01   P01      52.8     30      22.8     9.6    22.8
##  2 J01   P02      48.6     30      13.2    10.8    13.2
##  3 J01   P03      48       45.6    17.4     7.8    14.4
##  4 J01   P04      46.2     45.6    37.8     0      48.6
##  5 J01   P05       0       23.4    49.2     0      12.6
##  6 J01   P06       0       50.4    24      27.6    39.6
##  7 J01   P07       5.4      6.6    17.4     0      36  
##  8 J01   P08       0       51.6    48.6    23.4    18  
##  9 J01   P09       0       42.6    18      21      36  
## 10 J01   P10      53.4     36.6    11.4    18      10.8
## # … with 89 more rows, 27 more variables:
## #   `Print quality` <dbl>, Thickness <dbl>,
## #   `Color contrast` <dbl>,
## #   `Overall odor intensity` <dbl>,
## #   `Fatty odor` <dbl>, `Roasted odor` <dbl>,
## #   `Cereal flavor` <dbl>, `RawDough flavor` <dbl>,
## #   `Fatty flavor` <dbl>, `Dairy flavor` <dbl>, …
…
Import the variables’ name only;

Import the information regarding the levels;

Import the data without the first line of header, but by providing the correct names (obtained in the step 1.);

Decode each question (when needed) by replacing the numerical code by their corresponding labels.

Let’s start with importing the variables’ names from biscuits_traits.xlsx (sheet Variables)

file_path <- here("data","biscuits_traits.xlsx") 
var_names <- readxl::read_xlsx(file_path, sheet="Variables")

## # A tibble: 62 × 5
##    Code  Name           Direction Value `Full Question`
##    <chr> <chr>          <chr>     <dbl> <chr>          
##  1 Q1    Living area    <NA>         NA <NA>           
##  2 Q2    Housing        <NA>         NA <NA>           
##  3 Q3    Judge          <NA>         NA <NA>           
##  4 Q4    Height         <NA>         NA <NA>           
##  5 Q5    Weight         <NA>         NA <NA>           
##  6 Q6    BMI            <NA>         NA <NA>           
##  7 Q7    Marital status <NA>         NA <NA>           
##  8 Q8    Household size <NA>         NA <NA>           
##  9 Q9    Income range   <NA>         NA <NA>           
## 10 Q10   Occupation     <NA>         NA <NA>           
## # … with 52 more rows

In a similar way, let’s import the information related to the levels of each variable, stored in the Levels sheet.
A deeper look at the Levels sheet shows that only the coded names of the variables are available. In order to include the final names, var_names is joined (using inner_join).

var_labels <- readxl::read_xlsx(file_path, sheet="Levels") %>% 
  inner_join(dplyr::select(var_names, Code, Name), by=c(Question="Code"))

## # A tibble: 172 × 4
##    Question  Code Levels            Name          
##    <chr>    <dbl> <chr>             <chr>         
##  1 Q1           1 Urban Area        Living area   
##  2 Q1           2 Rurban Area       Living area   
##  3 Q1           3 Rural Area        Living area   
##  4 Q2           1 Apartment         Housing       
##  5 Q2           2 House             Housing       
##  6 Q7           1 Divorced          Marital status
##  7 Q7           2 Married           Marital status
##  8 Q7           3 Conjugal          Marital status
##  9 Q7           4 Single            Marital status
## 10 Q7           5 Civil Partnership Marital status
## # … with 162 more rows
…
As can be seen, this procedure creates a list of tables, with as many elements are there are sheets in the excel file.

As an alternative, consider using import_list() from {rio} as it imports automatically all the sheets from a spreadsheet with one single command.

To convert this list of data tables into one unique data frame, we first extend the previous code and enframe() it by informing that the separation was based on Session. Once done, the data (stored in data) is still nested in a list, and should be unfolded. Such operation is done with the unnest() function from {tidyr}:

files %>% 
  enframe(name = "Session", value = "data") %>% 
  unnest(cols = c(data))

## # A tibble: 72 × 6
##    Session   Subject Sample Sweet  Sour Bitter
##    <chr>     <chr>   <chr>  <dbl> <dbl>  <dbl>
##  1 Session 1 J1      P1     46.6  82.6    25.5
##  2 Session 1 J2      P1      1.28 60.1    13.9
##  3 Session 1 J3      P1     29.1  48.5    62.8
##  4 Session 1 J4      P1     29.9  79.2    52.7
##  5 Session 1 J5      P1     56.6  71.4    17.5
##  6 Session 1 J6      P1     45.7  43.1    64.8
##  7 Session 1 J7      P1     93.7   1.16   62.9
##  8 Session 1 J8      P1     33.6  59.7    96.0
##  9 Session 1 J9      P1     29.6  45.5    58.2
## 10 Session 1 J10     P1      3.57 48.1    59.0
## # … with 62 more rows
…
