Chapter 4 Data Manipulation | Data Science for Sensory and Consumer Scientists
…
## [1] "Judge"                     
## [2] "Product"                   
## [3] "Qty of inclusions"         
## [4] "Qty of inclusions in mouth"
## [5] "Shiny"

4.2.1.1.3 Removing/Selecting Columns

Another very important function regarding columns transformation is the select() function from {dplyr} (see Section 2.2.1 for a justification of the particular writing dplyr::select()) which allows selecting a set of variables, by simply informing the variables that should be kept in the data. Let’s limit ourselves in selecting Judge, Product, and Shiny:

sensory %>%
  dplyr::select(Judge, Product, Shiny)

## # A tibble: 99 × 3
##    Judge Product Shiny
##    <chr> <chr>   <dbl>
##  1 J01   P01      52.8
##  2 J01   P02      48.6
##  3 J01   P03      48  
##  4 J01   P04      46.2
##  5 J01   P05       0  
##  6 J01   P06       0  
##  7 J01   P07       5.4
##  8 J01   P08       0  
##  9 J01   P09       0  
## 10 J01   P10      53.4
## # … with 89 more rows

When a long series of variables should be kept in the same order, the use of the : is used.

Let’s keep all the variables going from Cereal flavor to Dairy flavor:

sensory %>%
  dplyr::select(Judge, Product, `Cereal flavor`:`Dairy flavor`)

## # A tibble: 99 × 6
##    Judge Product Cereal flavo…¹ RawDo…² Fatty…³ Dairy…⁴
##    <chr> <chr>            <dbl>   <dbl>   <dbl>   <dbl>
##  1 J01   P01               24.6    28.2    13.8       0
##  2 J01   P02               25.8    28.8     7.2       0
##  3 J01   P03               30      26.4     0         0
##  4 J01   P04               16.2    28.2     0         0
##  5 J01   P05               21.6    27.6     6.6       0
##  6 J01   P06               28.8    27.6     0         0
##  7 J01   P07               18      21       6         0
##  8 J01   P08               23.4    27       7.2       0
##  9 J01   P09               28.8    26.4     7.2       0
## 10 J01   P10               32.4    27.6    12        21
## # … with 89 more rows, and abbreviated variable names
## #   ¹​`Cereal flavor`, ²​`RawDough flavor`,
## #   ³​`Fatty flavor`, ⁴​`Dairy flavor`

However, when only one (or few) variable needs to be removed, it is easier to specify which one to remove rather than informing all the ones to keep. Such solution is then done using the - sign. The previous example can then be obtained using the following code:

sensory %>%
  dplyr::select(-c(Shiny, Melting))

The selection process of variables can be further informed through functions such as starts_with(), ends_with(), and contains(), which all select variables that either starts, ends, or contains a certain character or sequence of character. To illustrate this, let’s only keep the variables that starts with ‘Qty’:

sensory %>%
  dplyr::select(starts_with("Qty"))

## # A tibble: 99 × 2
##    `Qty of inclusions` `Qty of inclusions in mouth`
##                  <dbl>                        <dbl>
##  1                 9.6                         27.6
##  2                10.8                         22.2
##  3                 7.8                         10.2
##  4                 0                           13.2
##  5                 0                           18  
##  6                27.6                         26.4
##  7                 0                            9  
##  8                23.4                         25.8
##  9                21                           29.4
## 10                18                           30  
## # … with 89 more rows

Rather than selecting variables based on their names, we can also select them based on their position (e.g. dplyr::select(2:5) to keep the variables that are at position 2 to 5).

Selection of variables can also be done using some rules thanks to the where() function. Let’s consider the situation in which we only want to keep the variables that are nominal (or character in R), which automatically keeps Judge and Product:

sensory %>%
  dplyr::select(where(is.character))

## # A tibble: 99 × 2
##    Judge Product
##    <chr> <chr>  
##  1 J01   P01    
##  2 J01   P02    
##  3 J01   P03    
##  4 J01   P04    
##  5 J01   P05    
##  6 J01   P06    
##  7 J01   P07    
##  8 J01   P08    
##  9 J01   P09    
## 10 J01   P10    
## # … with 89 more rows
…
4.2.1.1.4 Creating Columns

In some cases, new variables need to be created from existing ones. Examples of such situations include taking the quadratic term of a sensory attribute to test for curvature, or simply considering a new variables as the sum or the subtraction between two (or more) others. Such creation of a variable is processed through the mutate() function from the {dplyr} package. This function takes as inputs the name of the variable to create, and the formula that defines that variable.

Let’s create two new variables, one called Shiny2 which corresponds to Shiny squared up, and one called StiMelt which corresponds to Sticky + Melting. Since we only use these three variables, let’s first reduce the data set to these three variables with select() to improve readability:

sensory %>%
  dplyr::select(Shiny, Sticky, Melting) %>%
  mutate(
    Shiny2 = Shiny^2,
    StiMelt = Sticky + Melting
  )

## # A tibble: 99 × 5
##    Shiny Sticky Melting Shiny2 StiMelt
##    <dbl>  <dbl>   <dbl>  <dbl>   <dbl>
##  1  52.8   37.2    33.6 2788.     70.8
##  2  48.6   35.4    36   2362.     71.4
##  3  48     37.2     8.4 2304      45.6
##  4  46.2   21.6    34.2 2134.     55.8
##  5   0     39      34.8    0      73.8
##  6   0     36      21.6    0      57.6
##  7   5.4   22.8    34.8   29.2    57.6
##  8   0     36.6    19.2    0      55.8
##  9   0     37.2    19.8    0      57  
## 10  53.4   35.4    32.4 2852.     67.8
## # … with 89 more rows

If you want to transform a variable, say by changing its type, or re-writing its content, you can use mutate() and assign to the new variable the same name as the original one. This will overwrite the existing column with the new one. To illustrate this, let’s transform Product from upper case to lower case only. This can be done by mutating Product into the lowercase version of Product (tolower(Product)):

sensory %>%
  mutate(Product = tolower(Product))

## # A tibble: 99 × 34
##    Judge Product Shiny Extern…¹ Color…² Qty o…³ Surfa…⁴
##    <chr> <chr>   <dbl>    <dbl>   <dbl>   <dbl>   <dbl>
##  1 J01   p01      52.8     30      22.8     9.6    22.8
##  2 J01   p02      48.6     30      13.2    10.8    13.2
##  3 J01   p03      48       45.6    17.4     7.8    14.4
##  4 J01   p04      46.2     45.6    37.8     0      48.6
##  5 J01   p05       0       23.4    49.2     0      12.6
##  6 J01   p06       0       50.4    24      27.6    39.6
##  7 J01   p07       5.4      6.6    17.4     0      36  
##  8 J01   p08       0       51.6    48.6    23.4    18  
##  9 J01   p09       0       42.6    18      21      36  
## 10 J01   p10      53.4     36.6    11.4    18      10.8
## # … with 89 more rows, 27 more variables:
## #   `Print quality` <dbl>, Thickness <dbl>,
## #   `Color contrast` <dbl>,
## #   `Overall odor intensity` <dbl>,
## #   `Fatty odor` <dbl>, `Roasted odor` <dbl>,
## #   `Cereal flavor` <dbl>, `RawDough flavor` <dbl>,
## #   `Fatty flavor` <dbl>, `Dairy flavor` <dbl>, …

mutate() being one of the most important function from the {dplyr} package, more examples of its use are presented throughout this book.

Since performing mathematical computations on non-numerical columns is not possible, conditions can easily be added through mutate() combined with across(). Let’s imagine we want to round all variables to 0 decimal, which can only be applied to numerical variables.
To do so, we mutate() across() all variables that are considered as.numeric() (using where()):

sensory %>%
  mutate(across(where(is.numeric), round, digits = 0))

## # A tibble: 99 × 34
##    Judge Product Shiny Extern…¹ Color…² Qty o…³ Surfa…⁴
##    <chr> <chr>   <dbl>    <dbl>   <dbl>   <dbl>   <dbl>
##  1 J01   P01        53       30      23      10      23
##  2 J01   P02        49       30      13      11      13
##  3 J01   P03        48       46      17       8      14
##  4 J01   P04        46       46      38       0      49
##  5 J01   P05         0       23      49       0      13
##  6 J01   P06         0       50      24      28      40
##  7 J01   P07         5        7      17       0      36
##  8 J01   P08         0       52      49      23      18
##  9 J01   P09         0       43      18      21      36
## 10 J01   P10        53       37      11      18      11
## # … with 89 more rows, 27 more variables:
## #   `Print quality` <dbl>, Thickness <dbl>,
## #   `Color contrast` <dbl>,
## #   `Overall odor intensity` <dbl>,
## #   `Fatty odor` <dbl>, `Roasted odor` <dbl>,
## #   `Cereal flavor` <dbl>, `RawDough flavor` <dbl>,
## #   `Fatty flavor` <dbl>, `Dairy flavor` <dbl>, …
…
In some cases, the new column to create depend directly on the value(s) of one or more columns present in the data.
An examples of such situations consists in categorizing a continuous variable into groups by converting the age (in year) of the participants into age groups. For such simple examples, some pre-existing functions (e.g. cut() in this situation) can be used.
However, in other situations, pre-defined functions do not exist and the transformation should be done manually using conditions.

Let’s illustrate this by converting the Shiny variable (from sensory) from numeric to classes.
Since the scale used is a 60pt scale, let’s start by creating a class called Low if the score is lower than 30, and High otherwise.

Here, pre-defined functions (e.g. cut()) are not being used intentionally as a manual transformation is preferred. Instead, mutate() is associated to ifelse(), which works as following: ifelse(condition, results if condition is TRUE, results if condition is not TRUE)

sensory %>%
  dplyr::select(Shiny) %>%
  mutate(ShinyGroup = ifelse(Shiny < 30, "Low", "High"))

## # A tibble: 99 × 2
##    Shiny ShinyGroup
##    <dbl> <chr>     
##  1  52.8 High      
##  2  48.6 High      
##  3  48   High      
##  4  46.2 High      
##  5   0   Low       
##  6   0   Low       
##  7   5.4 Low       
##  8   0   Low       
##  9   0   Low       
## 10  53.4 High      
## # … with 89 more rows

Let’s imagine the same variable should now be split into three levels: Low, Medium, and High. Such additional group could be obtained by adding an ifelse() condition within the existing ifelse() condition (we use 48 instead of 40 for the upper limit to Medium so that results are displayed on screen):

sensory %>%
  dplyr::select(Shiny) %>%
  mutate(ShinyGroup = ifelse(Shiny < 20, "Low",
                             ifelse(Shiny < 48, "Medium", "High")))

## # A tibble: 99 × 2
##    Shiny ShinyGroup
##    <dbl> <chr>     
##  1  52.8 High      
##  2  48.6 High      
##  3  48   High      
##  4  46.2 Medium    
##  5   0   Low       
##  6   0   Low       
##  7   5.4 Low       
##  8   0   Low       
##  9   0   Low       
## 10  53.4 High      
## # … with 89 more rows

Since there are only 3 conditions in total here, only two entangled ifelse() are required. This makes the code still manageable. However, in more complex situations (say 10 different conditions are required), such solution quickly becomes tedious to read, to track, and to debug if errors are being made. Instead, the use of an alternative function called case_when() is preferred. In the previous case, the same conditions would be written as follow:

sensory %>%
  dplyr::select(Shiny) %>%
  mutate(ShinyGroup = case_when(
    Shiny < 20 ~ "Low",
    between(Shiny, 20, 48) ~ "Medium",
    Shiny > 40 ~ "High"))

## # A tibble: 99 × 2
##    Shiny ShinyGroup
##    <dbl> <chr>     
##  1  52.8 High      
##  2  48.6 High      
##  3  48   Medium    
##  4  46.2 Medium    
##  5   0   Low       
##  6   0   Low       
##  7   5.4 Low       
##  8   0   Low       
##  9   0   Low       
## 10  53.4 High      
## # … with 89 more rows
…
Filtering entries based on given variables;

Splitting the data in sub-groups based on the entries of a given variable.

4.2.1.2.1 Re-arranging Rows

The first step of re-arranging rows is done through the arrange() function from the {dplyr} package. This function allows sorting the data in the ascending order17. To arrange them in a descending order, the function desc() is then required.

Let’s re-arrange the data by Judge and Product, Judge being sorted in an ascending order whereas Product is being sorted in a descending order:

sensory %>%
  arrange(Judge, desc(Product))

## # A tibble: 99 × 34
##    Judge Product Shiny Extern…¹ Color…² Qty o…³ Surfa…⁴
##    <chr> <chr>   <dbl>    <dbl>   <dbl>   <dbl>   <dbl>
##  1 J01   POpt      4.8     33.6    15.6    32.4    13.8
##  2 J01   P10      53.4     36.6    11.4    18      10.8
##  3 J01   P09       0       42.6    18      21      36  
##  4 J01   P08       0       51.6    48.6    23.4    18  
##  5 J01   P07       5.4      6.6    17.4     0      36  
##  6 J01   P06       0       50.4    24      27.6    39.6
##  7 J01   P05       0       23.4    49.2     0      12.6
##  8 J01   P04      46.2     45.6    37.8     0      48.6
##  9 J01   P03      48       45.6    17.4     7.8    14.4
## 10 J01   P02      48.6     30      13.2    10.8    13.2
## # … with 89 more rows, 27 more variables:
## #   `Print quality` <dbl>, Thickness <dbl>,
## #   `Color contrast` <dbl>,
## #   `Overall odor intensity` <dbl>,
## #   `Fatty odor` <dbl>, `Roasted odor` <dbl>,
## #   `Cereal flavor` <dbl>, `RawDough flavor` <dbl>,
## #   `Fatty flavor` <dbl>, `Dairy flavor` <dbl>, …
…
As we will see in the following section, it is very easy to transition from one version to another thanks to pivot_longer() and pivot_wider(), both being functions from {tidyr}.

4.2.2.1 Pivotting Longer

Currently, our sensory data table is a table in which we have as many rows as Judge x Product, the different attributes being spread across multiple columns. However, in certain situations, it is relevant to have all the attributes stacked vertically, meaning that the table will have Judge x Product x Attributes rows. Such simple transformation can be done with pivot_longer() which takes as inputs the attributes to pivot, the name of the variables that will contain these names (names_to), and the name of the column that will contain their entries (values_to)

With pivot_longer() and any other function that requires selecting variables, it is often easier to deselect variables that we do not want to include rather than selecting all the variables of interest. Throughout the book, both solutions are being considered.

sensory %>%
  pivot_longer(Shiny:Melting, names_to = "Attribute", values_to = "Score")

## # A tibble: 3,168 × 4
##    Judge Product Attribute                Score
##    <chr> <chr>   <chr>                    <dbl>
##  1 J01   P01     Shiny                     52.8
##  2 J01   P01     External color intensity  30  
##  3 J01   P01     Color evenness            22.8
##  4 J01   P01     Qty of inclusions          9.6
##  5 J01   P01     Surface defects           22.8
##  6 J01   P01     Print quality             48.6
##  7 J01   P01     Thickness                 38.4
##  8 J01   P01     Color contrast            37.8
##  9 J01   P01     Overall odor intensity    16.8
## 10 J01   P01     Fatty odor                 6.6
## # … with 3,158 more rows

This transformation converts a table of 99 rows and 34 columns into a table containing 3168 (9932) rows and 4 columns.
In the pivoted table, the names of the variables (stored here in Attribute*) are in the same order as presented in the original table.

In case the attribute names are following a standard structure, say “attribute_name modality” as is the case in sensory for some attributes, an additional parameter of pivot_longer() becomes handy as it can split the Attribute variable just created into say Attribute and Modality.

To illustrate this, let’s reduce sensory to Judge, Product, and all the variables that end with odor or flavor (all other variables being discarded). After pivoting the subset of columns, we automatically split the attribute names into Attribute and Modality by informing the separator between names (here, a space):

sensory %>%
  dplyr::select(Judge, Product, ends_with("odor"), ends_with("flavor")) %>%
  pivot_longer(-c(Judge, Product), names_to = c("Attribute", "Modality"), values_to = "Score", names_sep = " ")

## # A tibble: 693 × 5
##    Judge Product Attribute Modality Score
##    <chr> <chr>   <chr>     <chr>    <dbl>
##  1 J01   P01     Fatty     odor       6.6
##  2 J01   P01     Roasted   odor      15.6
##  3 J01   P01     Cereal    flavor    24.6
##  4 J01   P01     RawDough  flavor    28.2
##  5 J01   P01     Fatty     flavor    13.8
##  6 J01   P01     Dairy     flavor     0  
##  7 J01   P01     Roasted   flavor    24.6
##  8 J01   P02     Fatty     odor       5.4
##  9 J01   P02     Roasted   odor      20.4
## 10 J01   P02     Cereal    flavor    25.8
## # … with 683 more rows
…
