Chapter 13 Text Analysis | Data Science for Sensory and Consumer Scientists
…
cider <- cider %>% 
  mutate(tokens = str_to_lower(tokens)) %>% 
  mutate(tokens = str_trim(tokens)) %>% 
  mutate(tokens = str_squish(tokens)) %>% 
  mutate(tokens = str_remove_all(tokens, pattern="[(|)|?|!]")) %>% 
  mutate(tokens = str_remove_all(tokens, pattern="[ó|ò]")) %>% 
  mutate(tokens = str_replace_all(tokens, pattern="õ", replacement="'"))

To ensure that the cleaning job is done (for now), let’s produce the list of tokens generated here (and its corresponding frequency)51:

cider %>% 
  count(tokens) %>% 
  arrange(desc(n))

## # A tibble: 476 x 2
##    tokens     n
##    <chr>  <int>
##  1 sweet     55
##  2 fruity    33
##  3 sour      32
##  4 tart      28
##  5 apple     25
##  6 dry       25
##  7 crisp     23
##  8 musty     18
##  9 light     17
## 10 floral    14
## # ... with 466 more rows
…
library(spacyr)

spacy_initialize(entity=FALSE)
lemma <- spacy_parse(cider$tokens) %>% 
  as_tibble() %>% 
  dplyr::select(tokens=token, lemma) %>% 
  unique()

cider <- full_join(cider, lemma, by="tokens")

As can be seen, as opposed to stems, lemmas consist in regular words. Here, the grouping provides similar number of terms (approx 300) in both cases:

cider %>% count(stem)

## # A tibble: 301 x 2
##    stem          n
##    <chr>     <int>
##  1 acid         23
##  2 acrid         1
##  3 aftertast    12
##  4 alcohol      13
##  5 almond        1
##  6 almost        3
##  7 appar         1
##  8 appeal        4
##  9 appet         2
## 10 appl        106
## # ... with 291 more rows

cider %>% count(lemma)

## # A tibble: 303 x 2
##    lemma          n
##    <chr>      <int>
##  1 acid           3
##  2 acidic        18
##  3 acidity        2
##  4 acrid          1
##  5 aftertaste    12
##  6 alcohol       10
##  7 alcoholic      3
##  8 almond         1
##  9 almost         3
## 10 apparent       1
## # ... with 293 more rows
…
Look at groups of words, i.e. at words within their surroundings.

The latter option leads us to introduce the notion of bi-grams (groups of 2 following words), tri-grams (groups of 3 following words), or more generally n-grams (groups of n following words). More precisely, we are applying the same frequency count as before except that we are no longer considering one word as a token, but as a sequence of 2, 3, or more generally n words as a token. Such grouping can be obtained by the unnest_tokens() from {tidytext} in which token='ngrams', with n defining the number of words to consider.

For simplicity, let’s apply this to the original data, although it could be applied to the cleaned version (here we consider bi-grams).

cider_2grams <- cider_og %>% 
  unnest_tokens(bigrams, comments, token="ngrams", n=2)

cider_2grams %>% 
  count(bigrams) %>% 
  arrange(desc(n))

## # A tibble: 1,230 x 2
##    bigrams          n
##    <chr>        <int>
##  1 sweet fruity    11
##  2 a little         9
##  3 slight apple     9
##  4 smells like      9
##  5 green apple      8
##  6 has a            8
##  7 hint of          8
##  8 not too          7
##  9 sweet apple      7
## 10 very sweet       7
## # ... with 1,220 more rows

In our example, sweet fruity is the strongest 2-words association. Other relevant associations are green apple, sweet apple, or very sweet.
Of course, such bi-grams can also be obtained per product:

cider_2grams %>% 
  group_by(sample) %>% 
  count(bigrams) %>% 
  ungroup() %>% 
  arrange(desc(n)) %>% 
  filter(sample == "182")

## # A tibble: 255 x 3
##    sample bigrams          n
##    <chr>  <chr>        <int>
##  1 182    hint of          3
##  2 182    not sweet        3
##  3 182    not very         3
##  4 182    red apples       3
##  5 182    sweet light      3
##  6 182    and acidic       2
##  7 182    apple sweet      2
##  8 182    fruity not       2
##  9 182    fruity sweet     2
## 10 182    hard cider       2
## # ... with 245 more rows
…
